banks/FTCluster/6718861_6001.bin 17484
banks/FTCluster/6718861_6002.bin 8032
banks/FTCluster/6718861_6003.bin 8596
banks/FTCluster/6718861_6004.bin 9800
banks/FTCluster/6718861_6005.bin 11288
banks/FTCluster/6718861_6006.bin 7988
banks/FTCluster/6718861_6007.bin 12544
banks/FTCluster/6718861_6008.bin 12060
banks/FTCluster/6718861_6009.bin 13636
banks/FTCluster/6718861_6010.bin 14684
banks/FTCluster/6718861_6011.bin 10260
banks/FTCluster/6718861_6012.bin 9712
banks/FTCluster/6718861_6013.bin 10352
banks/FTCluster/6718861_6014.bin 9700
banks/FTCluster/6718861_6015.bin 6556
banks/FTCluster/6718861_6016.bin 15864
banks/FTCluster/6718861_6017.bin 5484
banks/FTCluster/6718861_6018.bin 7392
banks/FTCluster/6718861_6019.bin 10932
banks/FTCluster/6718861_6020.bin 24536
banks/FTCluster/6718861_6021.bin 8648
banks/FTCluster/6718861_6022.bin 8512
banks/FTCluster/6718861_6023.bin 7044
banks/FTCluster/6718861_6024.bin 18080
banks/FTCluster/6718861_6025.bin 10068
banks/FTCluster/6718861_6026.bin 9064
banks/FTCluster/6718861_6027.bin 14548
banks/FTCluster/6718861_6028.bin 12828
banks/FTCluster/6718861_6029.bin 13816
banks/FTCluster/6718861_6030.bin 12364
banks/FTCluster/6718861_6031.bin 7896
banks/FTCluster/6718861_6032.bin 7004
banks/FTCluster/6718861_6033.bin 5844
banks/FTCluster/6718861_6034.bin 8536
banks/FTCluster/6718861_6035.bin 3968
banks/FTCluster/6718861_6036.bin 15756
banks/FTCluster/6718861_6037.bin 5224
banks/FTCluster/6718861_6038.bin 16996
banks/FTCluster/6718861_6039.bin 7880
banks/FTCluster/6718861_6040.bin 9668
banks/FTCluster/6718861_6041.bin 7960
banks/FTCluster/6718861_6042.bin 7916
banks/FTCluster/6718861_6043.bin 9400
banks/FTCluster/6718861_6044.bin 7716
banks/FTCluster/6718861_6045.bin 5660
banks/FTCluster/6718861_6046.bin 6456
banks/FTCluster/6718861_6047.bin 14440
banks/FTCluster/6718861_6048.bin 5888
banks/FTCluster/6718861_6049.bin 7164
banks/FTCluster/6718861_6050.bin 9936
banks/Muon/6718861_6001.bin 2152
banks/Muon/6718861_6002.bin 440
banks/Muon/6718861_6003.bin 1036
banks/Muon/6718861_6004.bin 1412
banks/Muon/6718861_6005.bin 1240
banks/Muon/6718861_6006.bin 580
banks/Muon/6718861_6007.bin 1244
banks/Muon/6718861_6008.bin 896
banks/Muon/6718861_6009.bin 1464
banks/Muon/6718861_6010.bin 1740
banks/Muon/6718861_6011.bin 1304
banks/Muon/6718861_6012.bin 1712
banks/Muon/6718861_6013.bin 584
banks/Muon/6718861_6014.bin 1028
banks/Muon/6718861_6015.bin 804
banks/Muon/6718861_6016.bin 1792
banks/Muon/6718861_6017.bin 1080
banks/Muon/6718861_6018.bin 392
banks/Muon/6718861_6019.bin 1720
banks/Muon/6718861_6020.bin 2536
banks/Muon/6718861_6021.bin 1284
banks/Muon/6718861_6022.bin 844
banks/Muon/6718861_6023.bin 944
banks/Muon/6718861_6024.bin 2136
banks/Muon/6718861_6025.bin 960
banks/Muon/6718861_6026.bin 1332
banks/Muon/6718861_6027.bin 1436
banks/Muon/6718861_6028.bin 1876
banks/Muon/6718861_6029.bin 1616
banks/Muon/6718861_6030.bin 672
banks/Muon/6718861_6031.bin 1184
banks/Muon/6718861_6032.bin 1596
banks/Muon/6718861_6033.bin 640
banks/Muon/6718861_6034.bin 1360
banks/Muon/6718861_6035.bin 412
banks/Muon/6718861_6036.bin 1584
banks/Muon/6718861_6037.bin 416
banks/Muon/6718861_6038.bin 2192
banks/Muon/6718861_6039.bin 884
banks/Muon/6718861_6040.bin 1108
banks/Muon/6718861_6041.bin 1480
banks/Muon/6718861_6042.bin 932
banks/Muon/6718861_6043.bin 656
banks/Muon/6718861_6044.bin 512
banks/Muon/6718861_6045.bin 424
banks/Muon/6718861_6046.bin 504
banks/Muon/6718861_6047.bin 2328
banks/Muon/6718861_6048.bin 464
banks/Muon/6718861_6049.bin 1012
banks/Muon/6718861_6050.bin 888
banks/UT/6718861_6001.bin 11448
banks/UT/6718861_6002.bin 5584
banks/UT/6718861_6003.bin 5640
banks/UT/6718861_6004.bin 6376
banks/UT/6718861_6005.bin 7188
banks/UT/6718861_6006.bin 4036
banks/UT/6718861_6007.bin 10404
banks/UT/6718861_6008.bin 7092
banks/UT/6718861_6009.bin 10156
banks/UT/6718861_6010.bin 10596
banks/UT/6718861_6011.bin 6044
banks/UT/6718861_6012.bin 6892
banks/UT/6718861_6013.bin 5160
banks/UT/6718861_6014.bin 8212
banks/UT/6718861_6015.bin 3832
banks/UT/6718861_6016.bin 12780
banks/UT/6718861_6017.bin 3484
banks/UT/6718861_6018.bin 5084
banks/UT/6718861_6019.bin 8308
banks/UT/6718861_6020.bin 15636
banks/UT/6718861_6021.bin 5860
banks/UT/6718861_6022.bin 4732
banks/UT/6718861_6023.bin 4604
banks/UT/6718861_6024.bin 11280
banks/UT/6718861_6025.bin 6832
banks/UT/6718861_6026.bin 7020
banks/UT/6718861_6027.bin 9180
banks/UT/6718861_6028.bin 9976
banks/UT/6718861_6029.bin 10584
banks/UT/6718861_6030.bin 8208
banks/UT/6718861_6031.bin 5364
banks/UT/6718861_6032.bin 5568
banks/UT/6718861_6033.bin 3500
banks/UT/6718861_6034.bin 5676
banks/UT/6718861_6035.bin 2380
banks/UT/6718861_6036.bin 12208
banks/UT/6718861_6037.bin 3776
banks/UT/6718861_6038.bin 12852
banks/UT/6718861_6039.bin 4880
banks/UT/6718861_6040.bin 7372
banks/UT/6718861_6041.bin 5560
banks/UT/6718861_6042.bin 5308
banks/UT/6718861_6043.bin 6424
banks/UT/6718861_6044.bin 5624
banks/UT/6718861_6045.bin 3068
banks/UT/6718861_6046.bin 4472
banks/UT/6718861_6047.bin 10344
banks/UT/6718861_6048.bin 3436
banks/UT/6718861_6049.bin 4912
banks/UT/6718861_6050.bin 7056
banks/VP/6718861_6001.bin 22644
banks/VP/6718861_6002.bin 7892
banks/VP/6718861_6003.bin 10984
banks/VP/6718861_6004.bin 10568
banks/VP/6718861_6005.bin 14752
banks/VP/6718861_6006.bin 6496
banks/VP/6718861_6007.bin 7100
banks/VP/6718861_6008.bin 14984
banks/VP/6718861_6009.bin 17672
banks/VP/6718861_6010.bin 21504
banks/VP/6718861_6011.bin 10612
banks/VP/6718861_6012.bin 12008
banks/VP/6718861_6013.bin 8532
banks/VP/6718861_6014.bin 11124
banks/VP/6718861_6015.bin 6372
banks/VP/6718861_6016.bin 21600
banks/VP/6718861_6017.bin 7788
banks/VP/6718861_6018.bin 7328
banks/VP/6718861_6019.bin 15240
banks/VP/6718861_6020.bin 28360
banks/VP/6718861_6021.bin 11996
banks/VP/6718861_6022.bin 9012
banks/VP/6718861_6023.bin 7976
banks/VP/6718861_6024.bin 22596
banks/VP/6718861_6025.bin 8888
banks/VP/6718861_6026.bin 9780
banks/VP/6718861_6027.bin 12176
banks/VP/6718861_6028.bin 16196
banks/VP/6718861_6029.bin 20752
banks/VP/6718861_6030.bin 13812
banks/VP/6718861_6031.bin 10264
banks/VP/6718861_6032.bin 7688
banks/VP/6718861_6033.bin 5140
banks/VP/6718861_6034.bin 10860
banks/VP/6718861_6035.bin 2504
banks/VP/6718861_6036.bin 23580
banks/VP/6718861_6037.bin 5064
banks/VP/6718861_6038.bin 19920
banks/VP/6718861_6039.bin 8748
banks/VP/6718861_6040.bin 14032
banks/VP/6718861_6041.bin 11760
banks/VP/6718861_6042.bin 10404
banks/VP/6718861_6043.bin 13264
banks/VP/6718861_6044.bin 7688
banks/VP/6718861_6045.bin 4516
banks/VP/6718861_6046.bin 4852
banks/VP/6718861_6047.bin 23440
banks/VP/6718861_6048.bin 4412
banks/VP/6718861_6049.bin 9192
banks/VP/6718861_6050.bin 14420
geometry/beamline_dddb-20180815_sim-20180530-vc-md100.bin 8
geometry/ft_geometry_dddb-20180815_sim-20180530-vc-md100.bin 81060
geometry/muon_geometry_dddb-20180815_sim-20180530-vc-md100.bin 80080
geometry/muon_table_dddb-20180815_sim-20180530-vc-md100.bin 1170864
geometry/polarity_dddb-20180815_sim-20180530-vc-md100.bin 4
geometry/ut_boards_dddb-20180815_sim-20180530-vc-md100.bin 29764
geometry/ut_geometry_dddb-20180815_sim-20180530-vc-md100.bin 41924
geometry/ut_tables_dddb-20180815_sim-20180530-vc-md100.bin 15544
geometry/velo_geometry_dddb-20180815_sim-20180530-vc-md100.bin 16376
scifi_hits/6718861_6001.bin 259616
scifi_hits/6718861_6002.bin 89136
scifi_hits/6718861_6003.bin 99856
scifi_hits/6718861_6004.bin 124576
scifi_hits/6718861_6005.bin 149336
scifi_hits/6718861_6006.bin 88496
scifi_hits/6718861_6007.bin 171976
scifi_hits/6718861_6008.bin 162656
scifi_hits/6718861_6009.bin 188616
scifi_hits/6718861_6010.bin 210656
scifi_hits/6718861_6011.bin 131576
scifi_hits/6718861_6012.bin 119496
scifi_hits/6718861_6013.bin 130336
scifi_hits/6718861_6014.bin 122416
scifi_hits/6718861_6015.bin 64056
scifi_hits/6718861_6016.bin 229416
scifi_hits/6718861_6017.bin 45176
scifi_hits/6718861_6018.bin 79136
scifi_hits/6718861_6019.bin 142936
scifi_hits/6718861_6020.bin 383216
scifi_hits/6718861_6021.bin 103776
scifi_hits/6718861_6022.bin 98936
scifi_hits/6718861_6023.bin 73336
scifi_hits/6718861_6024.bin 270856
scifi_hits/6718861_6025.bin 125016
scifi_hits/6718861_6026.bin 108416
scifi_hits/6718861_6027.bin 206136
scifi_hits/6718861_6028.bin 175376
scifi_hits/6718861_6029.bin 197896
scifi_hits/6718861_6030.bin 166616
scifi_hits/6718861_6031.bin 89776
scifi_hits/6718861_6032.bin 73496
scifi_hits/6718861_6033.bin 51256
scifi_hits/6718861_6034.bin 99416
scifi_hits/6718861_6035.bin 17296
scifi_hits/6718861_6036.bin 232056
scifi_hits/6718861_6037.bin 40816
scifi_hits/6718861_6038.bin 252536
scifi_hits/6718861_6039.bin 92496
scifi_hits/6718861_6040.bin 121136
scifi_hits/6718861_6041.bin 89016
scifi_hits/6718861_6042.bin 90656
scifi_hits/6718861_6043.bin 116616
scifi_hits/6718861_6044.bin 85376
scifi_hits/6718861_6045.bin 48496
scifi_hits/6718861_6046.bin 61736
scifi_hits/6718861_6047.bin 208216
scifi_hits/6718861_6048.bin 52176
scifi_hits/6718861_6049.bin 73976
scifi_hits/6718861_6050.bin 126616
ut_hits/6718861_6001.bin 75904
ut_hits/6718861_6002.bin 28096
ut_hits/6718861_6003.bin 30076
ut_hits/6718861_6004.bin 34900
ut_hits/6718861_6005.bin 42136
ut_hits/6718861_6006.bin 15604
ut_hits/6718861_6007.bin 61468
ut_hits/6718861_6008.bin 40768
ut_hits/6718861_6009.bin 64924
ut_hits/6718861_6010.bin 69532
ut_hits/6718861_6011.bin 32524
ut_hits/6718861_6012.bin 39724
ut_hits/6718861_6013.bin 25828
ut_hits/6718861_6014.bin 48472
ut_hits/6718861_6015.bin 13912
ut_hits/6718861_6016.bin 86920
ut_hits/6718861_6017.bin 11068
ut_hits/6718861_6018.bin 23704
ut_hits/6718861_6019.bin 51316
ut_hits/6718861_6020.bin 107800
ut_hits/6718861_6021.bin 30508
ut_hits/6718861_6022.bin 22156
ut_hits/6718861_6023.bin 19636
ut_hits/6718861_6024.bin 75472
ut_hits/6718861_6025.bin 37060
ut_hits/6718861_6026.bin 39040
ut_hits/6718861_6027.bin 56392
ut_hits/6718861_6028.bin 62224
ut_hits/6718861_6029.bin 68488
ut_hits/6718861_6030.bin 48580
ut_hits/6718861_6031.bin 27268
ut_hits/6718861_6032.bin 28384
ut_hits/6718861_6033.bin 11428
ut_hits/6718861_6034.bin 29356
ut_hits/6718861_6035.bin 1924
ut_hits/6718861_6036.bin 82816
ut_hits/6718861_6037.bin 13372
ut_hits/6718861_6038.bin 86092
ut_hits/6718861_6039.bin 22552
ut_hits/6718861_6040.bin 43252
ut_hits/6718861_6041.bin 27844
ut_hits/6718861_6042.bin 25936
ut_hits/6718861_6043.bin 36196
ut_hits/6718861_6044.bin 28024
ut_hits/6718861_6045.bin 7972
ut_hits/6718861_6046.bin 17440
ut_hits/6718861_6047.bin 68596
ut_hits/6718861_6048.bin 10744
ut_hits/6718861_6049.bin 23452
ut_hits/6718861_6050.bin 41092
